1,Water,Uno,MALE,2.0,1.0,HEALTHY

2,Light,Sorn,FEMALE,5.0,2.0,HEALTHY

3,Earth,Threo,FEMALE,3.0,4.0,HEALTHY

4,Water,Quatre,MALE,3.0,3.0,HEALTHY

5,Light,Funf,FEMALE,1.0,1.0,SICK

6,Dark,Seox,MALE,4.0,3.0,HEALTHY

7,Wind,Siete,MALE,4.0,3.0,SICK

8,Earth,Octo,MALE,5.0,6.0,HEALTHY

9,Wind,Niyon,FEMALE,2.0,2.0,SICK

10,Fire,Tien,FEMALE,4.0,3.0,HEALTHY